<svg width="910" height="1924" viewBox="0 0 910 1924" fill="none" xmlns="http://www.w3.org/2000/svg">
<g opacity="0.6">
<g opacity="0.5">
<path d="M429.653 183.338L429.652 183.338C409.852 187.482 389.973 199.078 373.922 214.517C357.871 229.958 345.725 249.169 341.3 268.463L429.653 183.338ZM429.653 183.338C447.97 179.497 462.514 176.353 488.513 170.733C501.976 167.823 518.511 164.249 540.231 159.571L137.213 1922.57H36.3636C16.1895 1922.57 -0.316223 1914.67 -10.6808 1902.03C-21.0431 1889.39 -25.3349 1871.94 -20.9275 1852.71L-20.9274 1852.71L341.3 268.463L429.653 183.338Z" stroke="#3E45E8" stroke-width="2"/>
<path d="M785.421 27.235L785.42 27.2351C763.825 31.7552 742.149 44.4005 724.65 61.2333C707.15 78.067 693.904 99.0147 689.079 120.06L785.421 27.235ZM785.421 27.235C805.379 23.0505 821.227 19.6249 849.556 13.5014C864.255 10.3243 882.313 6.42085 906.049 1.30827L466.853 1922.57H356.891C334.884 1922.57 316.872 1913.95 305.56 1900.15C294.25 1886.36 289.568 1867.32 294.376 1846.34L294.377 1846.34L689.078 120.06L785.421 27.235Z" stroke="#3E45E8" stroke-width="2"/>
<path d="M-324.274 1852.35L-324.274 1852.34L9.60767 378.682C14.032 359.388 26.178 340.177 42.2263 324.736C58.2735 309.297 78.146 297.701 97.9328 293.557C116.431 289.682 131.077 286.516 157.518 280.802C170.856 277.919 187.194 274.388 208.541 269.79L-166.176 1922.2H-266.997C-287.184 1922.2 -303.69 1914.3 -314.049 1901.66C-324.406 1889.02 -328.688 1871.58 -324.274 1852.35Z" stroke="#3E45E8" stroke-width="2"/>
</g>
</g>
</svg>
