<svg width="1065" height="1853" viewBox="0 0 1065 1853" fill="none" xmlns="http://www.w3.org/2000/svg">
<g filter="url(#filter0_f)">
<circle cx="926.5" cy="926.5" r="326.5" fill="#1923FF"/>
</g>
<defs>
<filter id="filter0_f" x="0" y="0" width="1853" height="1853" filterUnits="userSpaceOnUse" color-interpolation-filters="sRGB">
<feFlood flood-opacity="0" result="BackgroundImageFix"/>
<feBlend mode="normal" in="SourceGraphic" in2="BackgroundImageFix" result="shape"/>
<feGaussianBlur stdDeviation="300" result="effect1_foregroundBlur"/>
</filter>
</defs>
</svg>
