<svg width="304" height="278" viewBox="0 0 304 278" fill="none" xmlns="http://www.w3.org/2000/svg">
<path d="M260.89 107.79V257.915L108.875 275.498V125.374" stroke="#1923FF" stroke-width="3" stroke-miterlimit="10" stroke-linecap="round" stroke-linejoin="round"/>
<path d="M108.875 125.383L260.898 107.798" stroke="#1923FF" stroke-width="3" stroke-miterlimit="10" stroke-linecap="round" stroke-linejoin="round"/>
<path d="M85.5474 65.7068L179.424 54.8436" stroke="#1923FF" stroke-width="3" stroke-miterlimit="10" stroke-linecap="round" stroke-linejoin="round"/>
<path d="M108.824 125.394V275.519L27.4199 222.768V72.6431" stroke="#1923FF" stroke-width="3" stroke-miterlimit="10" stroke-linecap="round" stroke-linejoin="round"/>
<path d="M27.4199 72.6038L108.823 125.355" stroke="#1923FF" stroke-width="3" stroke-miterlimit="10" stroke-linecap="round" stroke-linejoin="round"/>
<path d="M260.897 107.586L302 40.977L212.19 2L179.479 54.8342" stroke="#1923FF" stroke-width="3" stroke-miterlimit="10" stroke-linecap="round" stroke-linejoin="round"/>
<path d="M179.479 54.8176L260.898 107.57" stroke="#1923FF" stroke-width="3" stroke-miterlimit="10" stroke-linecap="round" stroke-linejoin="round"/>
<path d="M179.479 54.8176V117.203" stroke="#1923FF" stroke-width="3" stroke-miterlimit="10" stroke-linecap="round" stroke-linejoin="round"/>
<path d="M110.981 125.12L78.7946 49.7467L2 13.0056L27.451 72.6029" stroke="#1923FF" stroke-width="3" stroke-miterlimit="10" stroke-linecap="round" stroke-linejoin="round"/>
</svg>
