<svg width="74" height="74" viewBox="0 0 74 74" fill="none" xmlns="http://www.w3.org/2000/svg">
<circle cx="37" cy="35.4882" r="30" fill="#00FF00"/>
<path d="M0.999918 63.2126C0.999918 58.0767 5.16333 53.9133 10.2992 53.9133C15.435 53.9133 19.5984 58.0767 19.5984 63.2126C19.5984 68.3484 15.435 72.5118 10.2992 72.5118C5.16333 72.5118 0.999918 68.3484 0.999918 63.2126Z" stroke="#1923FF" stroke-width="2" stroke-miterlimit="10" stroke-linecap="round" stroke-linejoin="round"/>
<path d="M1.38818 1.48816L14.5354 14.6386" stroke="#1923FF" stroke-width="2" stroke-miterlimit="10" stroke-linecap="round" stroke-linejoin="round"/>
<path d="M1.38818 14.6414L14.5354 1.49092" stroke="#1923FF" stroke-width="2" stroke-miterlimit="10" stroke-linecap="round" stroke-linejoin="round"/>
<path d="M53.1743 5.52408H64.4951V16.8449" stroke="#1923FF" stroke-width="2" stroke-miterlimit="10" stroke-linecap="round" stroke-linejoin="round"/>
<path d="M13.0098 29.6606L26.1625 42.8101" stroke="#1923FF" stroke-width="2" stroke-miterlimit="10" stroke-linecap="round" stroke-linejoin="round"/>
<path d="M13.0098 42.8138L26.1625 29.6643" stroke="#1923FF" stroke-width="2" stroke-miterlimit="10" stroke-linecap="round" stroke-linejoin="round"/>
<path d="M59.8362 23.0627L72.9873 36.2138" stroke="#1923FF" stroke-width="2" stroke-miterlimit="10" stroke-linecap="round" stroke-linejoin="round"/>
<path d="M59.8362 36.2129L72.9873 23.0618" stroke="#1923FF" stroke-width="2" stroke-miterlimit="10" stroke-linecap="round" stroke-linejoin="round"/>
<path d="M55.0464 57.6689L68.1952 70.8177" stroke="#1923FF" stroke-width="2" stroke-miterlimit="10" stroke-linecap="round" stroke-linejoin="round"/>
<path d="M55.0464 70.8251L68.1952 57.6763" stroke="#1923FF" stroke-width="2" stroke-miterlimit="10" stroke-linecap="round" stroke-linejoin="round"/>
<path d="M64.4935 5.51801L48.7284 19.2809C44.0319 23.7671 41.5737 27.7262 41.5737 33.2669V44.0702C41.5737 51.9301 36.1818 59.4406 27.2092 60.9997L19.5984 62.3226" stroke="#1923FF" stroke-width="2" stroke-miterlimit="10" stroke-linecap="round" stroke-linejoin="round"/>
</svg>
