<svg width="73" height="73" viewBox="0 0 73 73" fill="none" xmlns="http://www.w3.org/2000/svg">
<circle cx="36.9619" cy="37" r="30" fill="#00FF00"/>
<path d="M7.62134 54.115V60.168H9.74596V66.2635H14.1344" stroke="#1923FF" stroke-width="2" stroke-miterlimit="10" stroke-linecap="round" stroke-linejoin="round"/>
<path d="M46.9124 29.9045H59.6147L64.7658 42.0288L69.8352 45.3731C70.6645 45.936 71.1609 46.8743 71.1609 47.876V66.2228H65.5285" stroke="#1923FF" stroke-width="2" stroke-miterlimit="10" stroke-linecap="round" stroke-linejoin="round"/>
<path d="M7.62134 35.9576V29.9045H13.6744" stroke="#1923FF" stroke-width="2" stroke-miterlimit="10" stroke-linecap="round" stroke-linejoin="round"/>
<path d="M25.9829 66.2837H53.7089" stroke="#1923FF" stroke-width="2" stroke-miterlimit="10" stroke-linecap="round" stroke-linejoin="round"/>
<path d="M59.6268 72C62.8894 72 65.5406 69.3488 65.5406 66.0831C65.5406 62.8236 62.8894 60.1693 59.6268 60.1693C56.3642 60.1693 53.71 62.8236 53.71 66.0831C53.71 69.3488 56.3642 72 59.6268 72Z" stroke="#1923FF" stroke-width="2" stroke-miterlimit="10" stroke-linecap="round" stroke-linejoin="round"/>
<path d="M20.0589 72C23.3215 72 25.9758 69.3488 25.9758 66.0831C25.9758 62.8236 23.3215 60.1693 20.0589 60.1693C16.7964 60.1693 14.1421 62.8236 14.1421 66.0831C14.1421 69.3488 16.7964 72 20.0589 72Z" stroke="#1923FF" stroke-width="2" stroke-miterlimit="10" stroke-linecap="round" stroke-linejoin="round"/>
<path d="M9.74561 60.1693H71.1205" stroke="#1923FF" stroke-width="2" stroke-miterlimit="10" stroke-linecap="round" stroke-linejoin="round"/>
<path d="M49.9417 29.9161V60.0361" stroke="#1923FF" stroke-width="2" stroke-miterlimit="10" stroke-linecap="round" stroke-linejoin="round"/>
<path d="M26.2786 15.2087L30.4007 19.3308L36.9925 12.739" stroke="#1923FF" stroke-width="2" stroke-miterlimit="10" stroke-linecap="round" stroke-linejoin="round"/>
<path d="M40.0689 29.013C34.7278 34.3541 26.0681 34.3541 20.7269 29.013C15.3858 23.6719 15.3858 15.0121 20.7269 9.671C26.0681 4.32985 34.7278 4.32985 40.0689 9.671C45.4101 15.0121 45.4101 23.6719 40.0689 29.013Z" stroke="#1923FF" stroke-width="2" stroke-miterlimit="10" stroke-linecap="round" stroke-linejoin="round"/>
<path d="M17.1162 48.033H5.01012" stroke="#1923FF" stroke-width="2" stroke-miterlimit="10" stroke-linecap="round" stroke-linejoin="round"/>
<path d="M1.9873 41.9809H20.1464" stroke="#1923FF" stroke-width="2" stroke-miterlimit="10" stroke-linecap="round" stroke-linejoin="round"/>
<path d="M58.7163 42.0409H49.9424" stroke="#1923FF" stroke-width="2" stroke-miterlimit="10" stroke-linecap="round" stroke-linejoin="round"/>
</svg>
