<svg width="32" height="32" viewBox="0 0 32 32" fill="none" xmlns="http://www.w3.org/2000/svg">
<path d="M17.8628 27.9962V17.0682H21.5495L22.0975 12.7896H17.8628V10.0642C17.8628 8.82956 18.2068 7.98423 19.9788 7.98423H22.2241V4.16956C21.1316 4.05248 20.0335 3.99595 18.9348 4.00023C15.6761 4.00023 13.4388 5.98956 13.4388 9.64156V12.7816H9.77612V17.0602H13.4468V27.9962H17.8628Z" fill="#1923FF"/>
</svg>
