<svg width="304" height="198" viewBox="0 0 304 198" fill="none" xmlns="http://www.w3.org/2000/svg">
<path d="M276.114 170.696H302V117.777C302 113.465 299.863 109.426 296.294 107.003L272.818 91.0311L250.645 53.4462H210.806" stroke="#1923FF" stroke-width="3" stroke-miterlimit="10" stroke-linecap="round" stroke-linejoin="round"/>
<path d="M157.929 170.85H225.165" stroke="#1923FF" stroke-width="3" stroke-miterlimit="10" stroke-linecap="round" stroke-linejoin="round"/>
<path d="M250.588 195.575C264.632 195.575 276.057 184.15 276.057 170.106C276.057 156.062 264.632 144.65 250.588 144.65C236.544 144.65 225.119 156.062 225.119 170.106C225.119 184.15 236.544 195.575 250.588 195.575Z" stroke="#1923FF" stroke-width="3" stroke-miterlimit="10" stroke-linecap="round" stroke-linejoin="round"/>
<path d="M54.2657 195.575C68.3096 195.575 79.7349 184.15 79.7349 170.106C79.7349 156.062 68.3096 144.65 54.2657 144.65C40.2218 144.65 28.7965 156.062 28.7965 170.106C28.7965 184.15 40.2218 195.575 54.2657 195.575Z" stroke="#1923FF" stroke-width="3" stroke-miterlimit="10" stroke-linecap="round" stroke-linejoin="round"/>
<path d="M132.429 195.575C146.473 195.575 157.885 184.15 157.885 170.106C157.885 156.062 146.473 144.65 132.429 144.65C118.385 144.65 106.96 156.062 106.96 170.106C106.96 184.15 118.385 195.575 132.429 195.575Z" stroke="#1923FF" stroke-width="3" stroke-miterlimit="10" stroke-linecap="round" stroke-linejoin="round"/>
<path d="M9.87195 144.65H301.914" stroke="#1923FF" stroke-width="3" stroke-miterlimit="10" stroke-linecap="round" stroke-linejoin="round"/>
<path d="M210.769 142.387V2H2.31279L2.00012 144.549H15.2232V170.005H28.8112" stroke="#1923FF" stroke-width="3" stroke-miterlimit="10" stroke-linecap="round" stroke-linejoin="round"/>
<path d="M106.96 170.85H79.6668" stroke="#1923FF" stroke-width="3" stroke-miterlimit="10" stroke-linecap="round" stroke-linejoin="round"/>
</svg>
