<svg width="576" height="261" viewBox="0 0 576 261" fill="none" xmlns="http://www.w3.org/2000/svg">
<g clip-path="url(#clip0)">
<path d="M359.1 115.4L296.2 147V25.1H283.7V147L258.6 134.5V25.1H246V128L220.9 115.4V0H359.1V25.1H321.4V106.2L333.9 99.8V37.7H359.1V115.4Z" fill="#fff"/>
<path d="M0 221.9H13.2L22.5 241.5L31.8 221.9H45V259.4H34V238.9L26.5 255.8H18.4L10.9 238.9V259.4H0V221.9Z" fill="#fff"/>
<path d="M88.3 259.3L86.4 254H72.3L70.4 259.3H57.7L73.5 221.8H86.1999L101.4 259.3H88.3ZM75.5999 245.2H83.4L79.5 234.2L75.5999 245.2Z" fill="#fff"/>
<path d="M107.6 221.9H141.3V231.7H130.6V259.4H118.2V231.7H107.6V221.9Z" fill="#fff"/>
<path d="M152.6 221.9H186.3V231.7H175.6V259.4H163.2V231.7H152.6V221.9Z" fill="#fff"/>
<path d="M200 221.9H231.7V231.3H212.4V235.9H229.9V245.3H212.4V250H232.2V259.4H200V221.9Z" fill="#fff"/>
<path d="M247.6 221.9H260V249H275.6V259.3H247.6V221.9Z" fill="#fff"/>
<path d="M289.5 221.9H301.9V259.4H289.5V221.9Z" fill="#fff"/>
<path d="M363.6 239.6H374.2V255.3C372.1 256.7 369.5 257.9 366.4 258.8C363.3 259.7 360.4 260.2 357.8 260.2C353.9 260.2 350.4 259.4 347.3 257.7C344.2 256 341.8 253.7 340.1 250.7C338.4 247.7 337.5 244.4 337.5 240.6C337.5 236.9 338.4 233.5 340.2 230.6C342 227.6 344.5 225.3 347.7 223.6C350.9 221.9 354.5 221.1 358.6 221.1C361.5 221.1 364.5 221.6 367.4 222.7C370.3 223.8 372.8 225.2 374.8 227L367.8 235.5C366.5 234.3 365.1 233.3 363.4 232.5C361.7 231.8 360.1 231.4 358.6 231.4C357 231.4 355.6 231.8 354.3 232.6C353 233.4 352 234.5 351.3 235.9C350.6 237.3 350.2 238.9 350.2 240.6C350.2 242.4 350.6 244 351.3 245.4C352 246.8 353 247.9 354.3 248.7C355.6 249.5 357 249.9 358.6 249.9C360 249.9 361.6 249.5 363.5 248.6V239.6H363.6Z" fill="#fff"/>
<path d="M411 259.3L406.5 249.6H401.8V259.3H389.4V221.8H407.5C412.6 221.8 416.5 223 419.3 225.3C422.1 227.6 423.5 230.9 423.5 235.2C423.5 237.9 423 240.3 422 242.3C421 244.3 419.5 245.9 417.6 247.1L425 259.3H411ZM401.9 240.2H407.6C409 240.2 410 239.8 410.7 239C411.4 238.2 411.8 237.1 411.8 235.7C411.8 234.3 411.4 233.2 410.7 232.5C410 231.7 408.9 231.4 407.6 231.4H401.9V240.2Z" fill="#fff"/>
<path d="M468.3 223.6C471.4 225.3 473.9 227.6 475.7 230.6C477.5 233.6 478.3 236.9 478.3 240.6C478.3 244.3 477.4 247.7 475.7 250.7C473.9 253.7 471.5 256 468.3 257.7C465.2 259.4 461.6 260.2 457.7 260.2C453.8 260.2 450.3 259.4 447.1 257.7C444 256 441.5 253.7 439.8 250.7C438 247.7 437.1 244.3 437.1 240.6C437.1 236.9 438 233.5 439.8 230.5C441.6 227.5 444 225.2 447.1 223.6C450.2 221.9 453.8 221.1 457.7 221.1C461.6 221 465.1 221.9 468.3 223.6ZM453.9 232.6C452.7 233.4 451.7 234.5 451 235.9C450.3 237.3 449.9 238.9 449.9 240.6C449.9 242.3 450.3 243.9 451 245.3C451.7 246.7 452.7 247.8 453.9 248.6C455.1 249.4 456.5 249.8 457.9 249.8C459.3 249.8 460.6 249.4 461.8 248.6C463 247.8 463.9 246.7 464.6 245.3C465.3 243.9 465.6 242.3 465.6 240.5C465.6 238.8 465.3 237.2 464.6 235.8C463.9 234.4 463 233.3 461.8 232.5C460.6 231.7 459.3 231.3 457.9 231.3C456.4 231.4 455.1 231.8 453.9 232.6Z" fill="#fff"/>
<path d="M505.9 248.2C507 249.3 508.3 249.9 509.7 249.9C511.2 249.9 512.4 249.3 513.3 248.2C514.3 247.1 514.7 245.6 514.7 243.8V221.9H527.1V243.8C527.1 247.1 526.4 250 524.9 252.4C523.5 254.9 521.4 256.8 518.8 258.1C516.2 259.5 513.1 260.1 509.5 260.1C506 260.1 502.9 259.4 500.2 258.1C497.5 256.7 495.4 254.8 493.9 252.4C492.4 249.9 491.7 247 491.7 243.8V221.9H504.1V243.8C504.3 245.6 504.8 247 505.9 248.2Z" fill="#fff"/>
<path d="M571.7 225.4C574.4 227.7 575.7 231 575.7 235.3C575.7 239.8 574.4 243.3 571.7 245.9C569 248.4 565.3 249.7 560.4 249.7H555.2V259.4H542.8V221.9H560.4C565.2 221.9 569 223 571.7 225.4ZM562.8 239C563.5 238.2 563.9 237.1 563.9 235.7C563.9 234.3 563.5 233.2 562.8 232.5C562.1 231.7 561 231.4 559.7 231.4H555.2V240.3H559.7C561.1 240.2 562.1 239.8 562.8 239Z" fill="#fff"/>
</g>
<defs>
<clipPath id="clip0">
<rect width="575.7" height="260.2" fill="white"/>
</clipPath>
</defs>
</svg>
