<svg width="10" height="180" viewBox="0 0 10 180" fill="none" xmlns="http://www.w3.org/2000/svg">
<path d="M1 0V83L8.5 90.5L1 98V180" stroke="url(#paint0_linear)"/>
<defs>
<linearGradient id="paint0_linear" x1="4.75" y1="20" x2="4.75" y2="160" gradientUnits="userSpaceOnUse">
<stop stop-color="white" stop-opacity="0"/>
<stop offset="0.494792" stop-color="#6269F9"/>
<stop offset="1" stop-color="white" stop-opacity="0"/>
</linearGradient>
</defs>
</svg>
