<svg width="233" height="38" viewBox="0 0 233 38" fill="none" xmlns="http://www.w3.org/2000/svg">
<path d="M26.2402 24L22.7174 34.6667H0L3.56794 24H26.2402Z" fill="white"/>
<path d="M233 0L229.477 10.6667H206.76L210.328 0H233Z" fill="white"/>
<path d="M39.3828 25.511C38.3892 25.511 37.5762 25.4666 36.8536 25.3777C36.1762 25.2888 35.589 25.1555 35.1374 24.9777C34.6858 24.7999 34.3696 24.5332 34.1889 24.2221C33.9631 23.911 33.8728 23.4666 33.8728 22.9777C33.8728 22.5777 33.918 22.1777 34.0083 21.6888C34.0986 21.1999 34.2793 20.6666 34.4599 20.0888L38.9311 6.35547H46.3832L45.2089 10.1332H49.0027L47.5123 14.7555H43.7185L42.0023 19.7777C41.9571 19.9555 41.912 20.0888 41.912 20.1777C41.8668 20.2666 41.8668 20.3999 41.8668 20.4888C41.8668 20.7999 42.1829 20.9777 42.7701 20.9777H45.5251L44.0347 25.511H39.3828Z" fill="white"/>
<path d="M52.074 25.5111C50.2674 25.5111 48.9577 25.2889 48.1447 24.8C47.3318 24.3111 46.9253 23.4666 46.9253 22.2222C46.9253 21.1555 47.1059 20.0889 47.4221 19.0222C47.7382 17.9555 48.1447 16.8889 48.5512 15.8222C49.0028 14.7111 49.4545 13.7777 49.9513 13.0666C50.4481 12.3555 51.0352 11.7777 51.6675 11.3333C52.2998 10.8889 53.0676 10.5777 53.9257 10.4C54.7838 10.2222 55.8226 10.1333 56.9968 10.1333H65.2166C66.7974 10.1333 67.8813 10.3555 68.4684 10.8C69.1007 11.2444 69.3717 11.9111 69.3717 12.7111C69.3717 13.3777 69.2362 14.0444 69.0104 14.7555C68.7846 15.4666 68.5136 16.1333 68.1523 16.7111C67.6103 17.6889 66.978 18.4 66.2554 18.8889C65.5328 19.3777 64.6295 19.6 63.5004 19.6H54.5128C54.4225 19.9111 54.3773 20.1777 54.3773 20.4444C54.3773 20.7111 54.4676 20.9333 54.6483 21.0222C54.829 21.1111 55.0999 21.1555 55.5064 21.1555H66.0296L64.6295 25.5111H52.074ZM58.4872 14.4C56.9517 14.4 55.958 15.0666 55.5064 16.4444H59.6615C60.068 16.4444 60.3841 16.3555 60.6551 16.2222C60.8809 16.0889 61.1067 15.8666 61.2422 15.6444C61.2874 15.5111 61.3777 15.3777 61.4229 15.2C61.468 15.0222 61.5132 14.8889 61.5132 14.7111C61.5132 14.5333 61.468 14.4444 61.3325 14.4C61.1971 14.3555 61.0164 14.3555 60.7454 14.3555H58.4872V14.4Z" fill="white"/>
<path d="M66.9329 25.5111L70.004 16.2222C70.4105 15.0666 70.8621 14.0889 71.3589 13.2889C71.8557 12.4889 72.488 11.8666 73.2106 11.4222C73.9333 10.9333 74.7462 10.6222 75.6946 10.4C76.6431 10.2222 77.727 10.1333 78.9916 10.1333H84.7726L83.237 14.8444H79.8497C79.1723 14.8444 78.6754 14.9777 78.3141 15.2C77.9528 15.4222 77.6367 15.9111 77.3657 16.7111L74.4752 25.5555H66.9329V25.5111Z" fill="white"/>
<path d="M81.0691 25.5111L84.1402 16.2222C84.5467 15.0666 84.9983 14.0889 85.4951 13.2889C85.9919 12.4889 86.6242 11.8666 87.3469 11.4222C88.0695 10.9333 88.8824 10.6222 89.8309 10.4C90.7793 10.2222 91.8632 10.1333 93.1278 10.1333H98.9088L97.3732 14.8444H93.9408C93.2633 14.8444 92.7665 14.9777 92.4052 15.2C92.0439 15.4222 91.7277 15.9111 91.4568 16.7111L88.5211 25.5111H81.0691Z" fill="white"/>
<path d="M100.083 25.5111C98.5924 25.5111 97.5536 25.2889 96.9213 24.8C96.289 24.3555 96.0181 23.6889 96.0181 22.8C96.0181 22.2666 96.1084 21.7333 96.2439 21.2C96.3794 20.6666 96.56 20.1333 96.7858 19.6444C97.0568 19.0222 97.373 18.4444 97.7343 17.9555C98.0956 17.4666 98.5472 17.0666 99.044 16.7555C99.5408 16.4444 100.173 16.1777 100.851 16.0444C101.528 15.8666 102.341 15.8222 103.244 15.8222H110.651C110.741 15.6 110.787 15.3777 110.787 15.1555C110.787 14.9333 110.696 14.7555 110.561 14.6666C110.38 14.5777 110.064 14.4889 109.612 14.4889H98.9537L100.354 10.1333H112.322C114.355 10.1333 115.89 10.4444 116.839 11.0666C117.787 11.6889 118.239 12.6222 118.239 13.8666C118.239 14.6222 118.103 15.4666 117.787 16.4L114.806 25.4666H100.083V25.5111ZM109.567 19.1555H105.457C105.096 19.1555 104.78 19.2 104.464 19.3333C104.148 19.4666 103.877 19.6444 103.696 19.8666C103.606 20 103.515 20.1333 103.425 20.3111C103.335 20.4889 103.335 20.6666 103.335 20.8444C103.335 21.0222 103.38 21.1111 103.515 21.1555C103.651 21.2 103.877 21.2 104.148 21.2H108.845L109.567 19.1555Z" fill="white"/>
<path d="M130.207 25.5111L132.872 17.3333C133.007 16.9777 133.052 16.6666 133.052 16.4889C133.052 16.2666 132.962 16.0889 132.781 16C132.601 15.9111 132.285 15.8666 131.833 15.8666H129.078C128.672 15.8666 128.355 15.8666 128.13 15.8666C127.904 15.8666 127.633 15.8222 127.407 15.7777L124.2 25.5111H116.793L121.852 10.1333H135.717C137.524 10.1333 138.879 10.4 139.782 10.9777C140.685 11.5555 141.137 12.4444 141.137 13.7333C141.137 14.5333 140.956 15.5111 140.595 16.6222L137.659 25.5111H130.207Z" fill="white"/>
<path d="M144.434 25.5111C142.943 25.5111 141.905 25.2889 141.272 24.8C140.64 24.3555 140.369 23.6889 140.369 22.8C140.369 22.2666 140.459 21.7333 140.595 21.2C140.73 20.6666 140.911 20.1333 141.137 19.6444C141.408 19.0222 141.724 18.4444 142.085 17.9555C142.447 17.4666 142.898 17.0666 143.395 16.7555C143.892 16.4444 144.524 16.1777 145.202 16.0444C145.879 15.8666 146.692 15.8222 147.595 15.8222H155.002C155.093 15.6 155.138 15.3777 155.138 15.1555C155.138 14.9333 155.047 14.7555 154.912 14.6666C154.731 14.5777 154.415 14.4889 153.963 14.4889H143.305L144.705 10.1333H156.673C158.706 10.1333 160.241 10.4444 161.19 11.0666C162.138 11.6889 162.59 12.6222 162.59 13.8666C162.59 14.6222 162.454 15.4666 162.138 16.4L159.157 25.4666H144.434V25.5111ZM153.918 19.1555H149.808C149.447 19.1555 149.131 19.2 148.815 19.3333C148.499 19.4666 148.228 19.6444 148.047 19.8666C147.957 20 147.866 20.1333 147.776 20.3111C147.686 20.4889 147.686 20.6666 147.686 20.8444C147.686 21.0222 147.731 21.1111 147.866 21.1555C148.002 21.2 148.228 21.2 148.499 21.2H153.196L153.918 19.1555Z" fill="white"/>
<path d="M168.054 25.5111C166.248 25.5111 164.893 25.2444 163.99 24.6666C163.086 24.0889 162.635 23.2 162.635 21.9111C162.635 21.1111 162.815 20.1777 163.177 19.0222L166.112 10.1333H173.519L170.855 18.2666C170.809 18.4889 170.719 18.6666 170.719 18.8C170.674 18.9333 170.674 19.0666 170.674 19.2C170.674 19.4222 170.764 19.6 170.945 19.6889C171.126 19.7777 171.442 19.8222 171.893 19.8222H174.377C174.784 19.8222 175.1 19.8222 175.326 19.8222C175.552 19.8222 175.823 19.8666 176.048 19.9111L179.255 10.1777H186.662L181.604 25.5555H168.054V25.5111Z" fill="white"/>
<path d="M190.411 25.511C189.417 25.511 188.604 25.4666 187.881 25.3777C187.204 25.2888 186.617 25.1555 186.165 24.9777C185.714 24.7999 185.397 24.5332 185.217 24.2221C184.991 23.911 184.901 23.4666 184.901 22.9777C184.901 22.5777 184.946 22.1777 185.036 21.6888C185.126 21.1999 185.307 20.6666 185.488 20.0888L189.959 6.35547H197.411L196.237 10.1332H200.031L198.54 14.7555H194.746L193.075 19.7777C193.03 19.9555 192.985 20.0888 192.985 20.1777C192.94 20.2666 192.94 20.3999 192.94 20.4888C192.94 20.7999 193.256 20.9777 193.843 20.9777H196.598L195.108 25.511H190.411Z" fill="white"/>
<path d="M159.473 37.8223L161.099 30.3556H162.499L160.873 37.8223H159.473Z" fill="white"/>
<path d="M162.273 37.8223L163.899 30.3556H166.203C166.79 30.3556 167.422 30.4 167.693 30.8889C167.919 31.2889 167.874 31.7334 167.783 32.2223C167.648 32.8889 167.377 33.5111 166.519 33.7778C167.287 33.8667 167.467 34.5334 167.241 35.5111C167.196 35.8223 167.106 36.1334 166.925 36.4445C166.429 37.3778 165.796 37.7778 164.757 37.7778H162.273V37.8223ZM164.215 36.7556C164.532 36.7556 164.803 36.8 165.074 36.6667C165.48 36.4889 165.661 36 165.751 35.6445C165.932 34.8445 165.841 34.4889 164.938 34.4889H164.396L163.899 36.7556H164.215ZM164.893 33.3778C165.254 33.3778 165.706 33.3778 165.977 33.1111C166.158 32.9334 166.203 32.6667 166.293 32.3111C166.429 31.7334 166.338 31.4667 165.706 31.4667H165.028L164.622 33.3778H164.893Z" fill="white"/>
<path d="M167.874 37.8223L169.5 30.3556H173.474L173.248 31.4667H170.674L170.267 33.3334H172.661L172.435 34.4445H170.042L169.545 36.7556H172.119L171.893 37.8667H167.874V37.8223ZM172.164 28.8H173.745L171.984 29.9112H170.945L172.164 28.8Z" fill="white"/>
<path d="M175.1 34.6222L174.423 37.8667H172.977L174.603 30.4H177.313C178.532 30.4 179.391 30.8 179.074 32.1778C178.894 32.9778 178.487 33.8667 177.539 34C178.352 34.0889 178.487 34.6222 178.352 35.3778C178.307 35.6889 177.855 37.5111 178.126 37.7334L178.081 37.8667H176.5C176.41 37.3778 176.681 36.4889 176.771 35.9556C176.861 35.5111 176.997 34.8889 176.545 34.7111C176.184 34.6222 175.777 34.6222 175.371 34.6222H175.1ZM175.326 33.5111H176.455C176.952 33.4667 177.358 33.2 177.539 32.4445C177.719 31.6 177.403 31.4667 176.861 31.4667H175.823L175.326 33.5111Z" fill="white"/>
<path d="M179.21 37.8223L180.836 30.3556H182.236L180.61 37.8223H179.21Z" fill="white"/>
<path d="M187.114 35.1556C187.069 35.289 187.023 35.4668 186.978 35.6001C186.617 36.9779 185.894 38.0001 184.314 38.0001C181.965 38.0001 182.146 36.5334 182.597 34.5334L182.823 33.4668C183.32 31.5556 183.772 30.1334 186.03 30.1334C187.294 30.1334 187.881 30.8001 187.701 32.089C187.701 32.2668 187.656 32.489 187.61 32.6668H186.21C186.256 32.1779 186.481 31.289 185.804 31.289C184.675 31.289 184.494 32.5779 184.359 33.1556L183.907 35.2445C183.772 35.8668 183.591 36.889 184.585 36.889C185.352 36.889 185.533 35.6445 185.668 35.1556H187.114Z" fill="white"/>
<path d="M187.068 37.8223L190.501 30.3556H192.398L192.488 37.8223H190.952L190.998 35.9111H189.327L188.559 37.8223H187.068ZM189.823 34.8445H191.043L191.133 32.7111C191.133 32.3556 191.178 32 191.223 31.6889C191.269 31.5111 191.269 31.3334 191.269 31.2C191.223 31.3778 191.178 31.5111 191.088 31.6889C190.998 32.0445 190.862 32.3556 190.727 32.7111L189.823 34.8445Z" fill="white"/>
</svg>
