<svg width="26" height="26" viewBox="0 0 26 26" fill="none" xmlns="http://www.w3.org/2000/svg">
<path d="M15.8184 24.9801H24.6622C24.9458 24.9801 25.1663 24.7543 25.1663 24.4729V22.66C25.1663 22.5213 25.1138 22.3901 25.0192 22.2945C22.7925 20.134 16.6482 17.8201 16.6482 17.8201C16.6377 17.8201 16.6271 17.8211 16.6271 17.8222" stroke="#030404" stroke-miterlimit="2" stroke-linecap="round" stroke-linejoin="round"/>
<path d="M9.54968 17.8169C9.53918 17.8169 9.52864 17.8137 9.51814 17.8137C9.51814 17.8137 3.42627 20.0793 1.14706 22.2892C1.05253 22.3858 1 22.516 1 22.6547V24.4676C1 24.7491 1.22055 24.9748 1.50414 24.9748H10.2849" stroke="#030404" stroke-miterlimit="2" stroke-linecap="round" stroke-linejoin="round"/>
<path d="M15.9604 16.1888C16.0129 16.0732 15.9919 14.6038 15.9919 14.4704C17.0318 13.4674 17.725 12.0032 17.83 10.5401H17.851C18.8594 10.5401 19.1429 9.07912 18.2291 8.64744C18.4182 8.06136 18.5233 7.43324 18.5233 6.77888C18.5233 3.58904 16.0864 1 13.072 1C10.0576 1 7.62086 3.58904 7.62086 6.77888C7.62086 7.43324 7.7258 8.06136 7.91486 8.64744C7.00107 9.08017 7.29515 10.5401 8.29296 10.5401H8.31399C8.41902 11.9843 9.10182 13.4254 10.1101 14.4284C10.1101 14.5618 10.089 16.0764 10.1415 16.1919" stroke="#030404" stroke-miterlimit="2" stroke-linecap="round" stroke-linejoin="round"/>
<path fill-rule="evenodd" clip-rule="evenodd" d="M14.8747 18.4718C15.4629 18.748 14.7488 20.2163 14.3287 20.9642C13.5094 20.8434 12.6587 20.8518 11.8394 20.9883C11.4298 20.2458 10.768 18.873 11.2827 18.4718C11.2827 18.4718 12.8161 17.5086 14.8747 18.4718Z" stroke="#030404" stroke-miterlimit="2" stroke-linecap="round" stroke-linejoin="round"/>
<path d="M14.0527 22.4695L14.0738 22.7006L14.3363 25.0018" stroke="#030404" stroke-miterlimit="2" stroke-linecap="round" stroke-linejoin="round"/>
<path d="M11.8154 24.9994L12.1094 22.488" stroke="#030404" stroke-miterlimit="2" stroke-linecap="round" stroke-linejoin="round"/>
</svg>
