<svg width="153" height="40" viewBox="0 0 153 40" fill="none" xmlns="http://www.w3.org/2000/svg">
<g clip-path="url(#clip0)">
<path d="M0.10791 34.9362H1.00749V39.162H3.59827V39.927H0.10791V34.9362Z" fill="white"/>
<path d="M8.13215 38.9799C8.38403 38.8342 8.59993 38.6156 8.74386 38.3606C8.88779 38.1056 8.95976 37.7777 8.95976 37.4499C8.95976 37.122 8.88779 36.8306 8.74386 36.5391C8.59993 36.2841 8.38403 36.0655 8.13215 35.9198C7.84428 35.7741 7.55642 35.7012 7.23257 35.7012C6.90872 35.7012 6.62086 35.7741 6.33299 35.9198C6.08111 36.0655 5.86521 36.2841 5.72128 36.5391C5.57735 36.7941 5.50538 37.122 5.50538 37.4499C5.50538 37.7777 5.57735 38.0692 5.72128 38.3606C5.86521 38.6156 6.08111 38.8342 6.33299 38.9799C6.58488 39.1257 6.90872 39.1985 7.23257 39.1985C7.55642 39.1985 7.84428 39.1257 8.13215 38.9799ZM5.86521 39.6721C5.4694 39.4535 5.14555 39.1257 4.92965 38.7614C4.71376 38.3606 4.56982 37.9235 4.56982 37.4499C4.56982 36.9763 4.67777 36.5391 4.92965 36.1384C5.14555 35.7377 5.4694 35.4462 5.86521 35.2276C6.26103 35.0091 6.72881 34.8998 7.23257 34.8998C7.73633 34.8998 8.20411 35.0091 8.59993 35.2276C8.99574 35.4462 9.31959 35.7377 9.53549 36.1384C9.75139 36.5391 9.89532 36.9763 9.89532 37.4499C9.89532 37.9235 9.78737 38.3971 9.53549 38.7614C9.31959 39.1621 8.99574 39.4535 8.59993 39.6721C8.20411 39.8907 7.73633 40 7.23257 40C6.72881 40 6.29701 39.8907 5.86521 39.6721Z" fill="white"/>
<path d="M14.9329 37.377H15.7965V39.3807C15.5446 39.5992 15.2568 39.745 14.8969 39.8542C14.5731 39.9635 14.2133 40 13.8534 40C13.3497 40 12.8819 39.8907 12.4861 39.6721C12.0903 39.4535 11.7664 39.1621 11.5505 38.7614C11.3346 38.3606 11.1907 37.9235 11.1907 37.4499C11.1907 36.9763 11.2986 36.5027 11.5505 36.1384C11.7664 35.7377 12.0903 35.4462 12.522 35.2276C12.9179 35.0091 13.3856 34.8998 13.8894 34.8998C14.2852 34.8998 14.681 34.9726 15.0049 35.1184C15.3287 35.2641 15.6166 35.4462 15.8685 35.7377L15.2927 36.3205C14.9329 35.9562 14.4651 35.7377 13.9254 35.7377C13.5656 35.7377 13.2777 35.8105 12.9898 35.9562C12.702 36.102 12.522 36.3205 12.3421 36.5756C12.1982 36.8306 12.1262 37.1584 12.1262 37.4863C12.1262 37.8142 12.1982 38.1056 12.3421 38.3971C12.4861 38.6521 12.702 38.8706 12.9898 39.0164C13.2777 39.1621 13.5656 39.2349 13.9254 39.2349C14.3212 39.2349 14.645 39.1621 14.9329 38.9799V37.377Z" fill="white"/>
<path d="M18.6032 34.9362H17.7036V39.927H18.6032V34.9362Z" fill="white"/>
<path d="M21.0862 39.8542C20.7263 39.7449 20.4385 39.5992 20.2585 39.417L20.5824 38.6884C20.7983 38.8341 21.0502 38.9799 21.338 39.0891C21.6259 39.1984 21.9138 39.2349 22.2376 39.2349C22.5974 39.2349 22.8853 39.162 23.0652 39.0527C23.2451 38.9434 23.3531 38.7613 23.3531 38.5791C23.3531 38.4334 23.3171 38.3241 23.2092 38.2148C23.1012 38.1055 22.9933 38.0327 22.8133 37.9962C22.6694 37.9598 22.4535 37.887 22.1656 37.8141C21.8058 37.7412 21.482 37.6319 21.2661 37.5591C21.0502 37.4862 20.8343 37.3405 20.6544 37.1219C20.4744 36.9398 20.4025 36.6848 20.4025 36.3569C20.4025 36.0655 20.4744 35.8469 20.6184 35.5919C20.7623 35.3733 20.9782 35.1911 21.3021 35.0454C21.5899 34.8997 21.9497 34.8633 22.3815 34.8633C22.6694 34.8633 22.9933 34.8997 23.2811 34.9726C23.569 35.0454 23.8209 35.1547 24.0368 35.3004L23.7489 36.029C23.533 35.8833 23.3171 35.8105 23.0652 35.7376C22.8133 35.6647 22.5974 35.6283 22.3815 35.6283C22.0217 35.6283 21.7339 35.7012 21.5899 35.8105C21.41 35.9197 21.338 36.1019 21.338 36.3205C21.338 36.4662 21.374 36.5755 21.482 36.6848C21.5899 36.7576 21.6979 36.8305 21.8778 36.9034C22.0217 36.9398 22.2376 37.0126 22.5255 37.0855C22.8853 37.1584 23.2092 37.2677 23.4251 37.3405C23.6769 37.4498 23.8569 37.5591 24.0368 37.7777C24.2167 37.9598 24.2886 38.2148 24.2886 38.5427C24.2886 38.8341 24.2167 39.0527 24.0728 39.3077C23.9288 39.5263 23.7129 39.7085 23.3891 39.8542C23.1012 39.9999 22.7054 40.0363 22.2736 40.0363C21.8058 39.9999 21.446 39.9635 21.0862 39.8542Z" fill="white"/>
<path d="M26.7354 35.7376H25.1162V34.9362H29.2902V35.7376H27.635V39.927H26.7354V35.7376Z" fill="white"/>
<path d="M31.5932 34.9362H30.6936V39.927H31.5932V34.9362Z" fill="white"/>
<path d="M34.328 39.6721C33.9322 39.4535 33.6084 39.1621 33.3925 38.7613C33.1766 38.3606 33.0686 37.9235 33.0686 37.4499C33.0686 36.9763 33.1766 36.5027 33.4284 36.1384C33.6443 35.7377 33.9682 35.4462 34.364 35.2276C34.7598 35.0091 35.2276 34.8998 35.7314 34.8998C36.1272 34.8998 36.487 34.9726 36.8468 35.1184C37.1707 35.2641 37.4585 35.4827 37.6744 35.7377L37.0987 36.2841C36.7389 35.8834 36.3071 35.7012 35.7673 35.7012C35.4435 35.7012 35.1196 35.7741 34.8678 35.9198C34.6159 36.0655 34.4 36.2841 34.256 36.5391C34.1121 36.7941 34.0401 37.122 34.0401 37.4499C34.0401 37.7777 34.1121 38.1056 34.256 38.3606C34.4 38.6156 34.6159 38.8342 34.8678 38.9799C35.1196 39.1256 35.4435 39.1985 35.7673 39.1985C36.3071 39.1985 36.7389 39.0164 37.0987 38.6156L37.6744 39.1985C37.4585 39.4535 37.1707 39.6721 36.8108 39.8178C36.487 39.9635 36.0912 40.0364 35.6954 40.0364C35.1916 40 34.7238 39.8907 34.328 39.6721Z" fill="white"/>
<path d="M39.6174 39.8542C39.2576 39.7449 38.9697 39.5992 38.7898 39.417L39.1136 38.6884C39.3295 38.8341 39.5814 38.9799 39.8693 39.0891C40.1571 39.1984 40.445 39.2349 40.7689 39.2349C41.1287 39.2349 41.4166 39.162 41.5965 39.0527C41.7764 38.9434 41.8843 38.7613 41.8843 38.5791C41.8843 38.4334 41.8484 38.3241 41.7404 38.2148C41.6325 38.1055 41.5245 38.0327 41.3446 37.9962C41.2007 37.9598 40.9848 37.887 40.6969 37.8141C40.3371 37.7412 40.0132 37.6319 39.7973 37.5591C39.5814 37.4862 39.3655 37.3405 39.1856 37.1219C39.0057 36.9398 38.9337 36.6848 38.9337 36.3569C38.9337 36.0655 39.0057 35.8469 39.1496 35.5919C39.2936 35.3733 39.5095 35.1911 39.8333 35.0454C40.1212 34.8997 40.481 34.8633 40.9128 34.8633C41.2007 34.8633 41.5245 34.8997 41.8124 34.9726C42.1002 35.0454 42.3521 35.1547 42.568 35.3004L42.2801 36.029C42.0642 35.8833 41.8484 35.8105 41.5965 35.7376C41.3446 35.6647 41.1287 35.6283 40.9128 35.6283C40.553 35.6283 40.2651 35.7012 40.1212 35.8105C39.9413 35.9197 39.8693 36.1019 39.8693 36.3205C39.8693 36.4662 39.9053 36.5755 40.0132 36.6848C40.1212 36.7576 40.2291 36.8305 40.409 36.9034C40.553 36.9398 40.7689 37.0126 41.0567 37.0855C41.4166 37.1584 41.7404 37.2677 41.9563 37.3405C42.2082 37.4498 42.3881 37.5591 42.568 37.7777C42.7479 37.9598 42.8199 38.2148 42.8199 38.5427C42.8199 38.8341 42.7479 39.0527 42.604 39.3077C42.4601 39.5263 42.2442 39.7085 41.9203 39.8542C41.6325 39.9999 41.2366 40.0363 40.8048 40.0363C40.3371 39.9999 39.9772 39.9635 39.6174 39.8542Z" fill="white"/>
<path d="M12.0903 19.3806H4.92968L5.36148 16.794H14.4652C14.933 16.794 15.4008 16.3933 15.5087 15.9197L15.7966 14.2439C15.8685 13.7704 15.5447 13.3696 15.0769 13.3696H5.07361H3.38241C2.91463 13.3696 2.44685 13.7704 2.3389 14.2439L1.7602e-06 27.978C-0.0719644 28.4516 0.251883 28.8523 0.719663 28.8523H2.41087C2.87865 28.8523 3.34643 28.4516 3.45438 27.978L4.31797 22.805H11.5146C11.9824 22.805 12.4501 22.4042 12.5581 21.9306L12.846 20.2549C12.9179 19.7813 12.5941 19.3806 12.0903 19.3806Z" fill="white"/>
<path d="M19.5747 22.2221C19.6827 22.0036 22.5613 16.5755 22.5613 16.5755C22.7772 16.1384 23.0651 16.1748 23.137 16.6848C23.137 16.6848 24.1446 22.0036 24.1806 22.2586H19.5747V22.2221ZM26.3755 14.2076C26.2676 13.734 25.7998 13.3333 25.332 13.3333H21.5178C21.05 13.3333 20.4383 13.6976 20.2224 14.1347L12.7739 28.0874C12.558 28.5245 12.7379 28.8524 13.2417 28.8524H15.1488C15.6166 28.8524 16.2283 28.4881 16.4442 28.0874L17.7396 25.6466C17.7756 25.6466 17.7756 25.6466 17.8116 25.6466H24.8282L25.26 27.9781C25.368 28.4517 25.8358 28.8524 26.3036 28.8524H28.2107C28.6784 28.8524 29.0023 28.4517 28.9303 27.9781L26.3755 14.2076Z" fill="white"/>
<path d="M60.2717 13.3333H55.2701H53.5789H48.5772C48.1094 13.3333 47.6417 13.734 47.5337 14.2076L47.2459 15.8833C47.1739 16.3569 47.4977 16.7577 47.9655 16.7577H52.0676L50.1605 27.9781C50.0885 28.4517 50.4124 28.8524 50.8801 28.8524H52.5714C53.0391 28.8524 53.5069 28.4517 53.6149 27.9781L55.522 16.7577H59.66C60.1278 16.7577 60.5956 16.3569 60.7035 15.8833L60.9914 14.2076C61.0634 13.734 60.7395 13.3333 60.2717 13.3333Z" fill="white"/>
<path d="M75.4925 12.8597C72.47 12.969 66.6767 13.224 63.762 13.3333C63.2943 13.3698 62.8265 13.7341 62.7185 14.2076L60.3796 27.9781C60.3077 28.4517 60.6315 28.8525 61.0993 28.8525H72.7218C73.1896 28.8525 73.6574 28.4517 73.7653 27.9781L74.0532 26.3024C74.1252 25.8288 73.8013 25.4281 73.3335 25.4281H64.3018L64.7336 22.8051H71.8942C72.362 22.8051 72.8298 22.4044 72.9377 21.9308L73.2256 20.255C73.2976 19.7814 72.9737 19.3807 72.5059 19.3807H65.3453L65.7771 16.7577L74.9168 16.4663C75.3846 16.4663 75.8524 16.0656 75.9603 15.592L76.2482 13.7705C76.2842 13.3333 75.9603 12.8597 75.4925 12.8597Z" fill="white"/>
<path d="M45.0868 13.3333H37.0266C33.5003 13.3333 32.6007 16.0291 32.3848 17.2677C32.2768 17.7777 32.1689 18.7249 32.0609 19.2713C31.953 19.9635 32.025 22.7322 35.3354 22.7322H40.517C40.9847 22.7322 41.3086 23.06 41.2006 23.5336L41.0207 24.5537C40.9488 25.0272 40.481 25.428 40.0132 25.428H32.3128C31.845 25.428 31.3773 25.8287 31.2693 26.3023C31.1973 26.7394 31.0534 27.5773 30.9814 27.9781C30.9095 28.4517 31.2333 28.8524 31.7011 28.8524H39.7253C43.2517 28.8524 44.1512 26.1566 44.3671 24.918C44.4751 24.3351 44.691 23.4972 44.7989 22.9507C44.9069 22.2586 44.8349 19.4899 41.5245 19.4899H36.3069C35.8392 19.4899 35.4433 19.0163 35.5153 18.5427L35.6592 17.4863C35.7312 17.0127 36.199 16.7577 36.6668 16.7577H44.4031C44.8709 16.7577 45.3387 16.3569 45.4466 15.8833C45.5186 15.4462 45.6625 14.6083 45.7345 14.2076C45.8784 13.734 45.5546 13.3333 45.0868 13.3333Z" fill="white"/>
<path d="M88.6983 16.102L88.2306 18.9071C88.1586 19.3807 88.0507 19.8178 87.5829 19.8178L81.1059 20.1092L81.7896 16.0291L88.2306 15.4827C88.4824 15.4827 88.7703 15.6284 88.6983 16.102ZM89.382 11.5847C86.8632 11.8032 79.7386 12.459 79.7386 12.459C79.2708 12.4954 78.839 12.8597 78.767 13.3333L76.2842 27.9781C76.2122 28.4517 76.5361 28.8524 77.0038 28.8524H78.695C79.1628 28.8524 79.6306 28.4517 79.7386 27.9781L80.4582 23.7158L83.5528 23.6429L86.2155 28.1238C86.4674 28.561 87.0791 28.8888 87.5469 28.8888H90.1737C90.6414 28.8888 90.8573 28.561 90.6055 28.1238L87.8348 23.4972C90.6414 23.0601 91.7209 20.6921 91.9368 19.5628C92.0448 18.9799 92.6205 15.4827 92.7285 14.8998C92.8724 14.2076 92.6565 11.2568 89.382 11.5847Z" fill="white"/>
<path d="M109.281 13.5519C109.281 13.5519 108.741 16.2112 108.597 17.122C108.489 17.6684 108.381 18.0692 107.733 18.142C106.078 18.2877 101.616 18.7249 99.2052 18.9071L100.069 14.1712C102.911 13.7704 107.517 13.0783 108.669 12.9326C109.029 12.8961 109.388 13.0054 109.281 13.5519ZM110.828 8.01452C107.157 8.67026 97.2262 10.4553 97.2262 10.4553C96.7584 10.5646 96.3266 11.0018 96.2546 11.4754L93.376 28.0145C93.304 28.4881 93.6279 28.8888 94.0956 28.8888H96.5425C97.0103 28.8888 97.4781 28.4881 97.586 28.0145L98.4856 23.0601C99.3132 23.0236 100.86 22.9872 102.444 22.9143L106.042 28.1602C106.33 28.561 106.942 28.8888 107.409 28.8888H111.691C112.159 28.8888 112.339 28.561 112.051 28.1602L108.093 22.55C111.044 22.04 113.275 19.8907 113.742 17.9963C114.138 16.3205 115.038 12.459 115.182 11.8032C115.326 11.0018 114.966 7.28593 110.828 8.01452Z" fill="white"/>
<path d="M141.737 8.52452C141.737 8.52452 140.838 12.3132 140.55 13.4426C140.37 14.1347 140.154 14.6083 139.11 14.7176C136.304 15.009 128.783 15.8834 125.437 16.2112L127.092 9.98172C130.259 9.43527 138.427 7.90522 141.305 7.43163C141.953 7.32234 141.917 7.83236 141.737 8.52452ZM145.767 0.254944C139.182 1.785 127.668 4.33509 121.515 5.71943C121.047 5.82871 120.579 6.3023 120.471 6.77589L115.793 28.0145C115.685 28.4881 116.009 28.8888 116.477 28.8888H121.227C121.695 28.8888 122.198 28.4881 122.342 28.0145L124.069 21.53C125.149 21.4571 126.912 21.3114 129.539 21.1657L135.98 28.2331C136.304 28.5974 136.987 28.8888 137.455 28.8888H147.386C147.854 28.8888 147.998 28.5974 147.638 28.2695L139.686 20.5464C145.263 20.1092 149.905 16.4662 151.309 12.1311C151.992 10.0181 152.64 7.86879 152.82 7.06733C153.791 2.40431 151.201 -0.983671 145.767 0.254944Z" fill="white"/>
</g>
<defs>
<clipPath id="clip0">
<rect width="153" height="40" fill="white"/>
</clipPath>
</defs>
</svg>
