<svg width="1530" height="2762" viewBox="0 0 1530 2762" fill="none" xmlns="http://www.w3.org/2000/svg">
<g filter="url(#filter0_f)">
<circle cx="149" cy="1381" r="581" fill="#1923FF"/>
</g>
<defs>
<filter id="filter0_f" x="-1232" y="0" width="2762" height="2762" filterUnits="userSpaceOnUse" color-interpolation-filters="sRGB">
<feFlood flood-opacity="0" result="BackgroundImageFix"/>
<feBlend mode="normal" in="SourceGraphic" in2="BackgroundImageFix" result="shape"/>
<feGaussianBlur stdDeviation="400" result="effect1_foregroundBlur"/>
</filter>
</defs>
</svg>
