<svg width="222" height="100" viewBox="0 0 222 100" fill="none" xmlns="http://www.w3.org/2000/svg">
<path d="M138.475 44.3505L114.22 56.495V9.64643H109.4V56.495L99.7206 51.691V9.64643H94.8619V49.1929L85.1829 44.3505V0H138.475V9.64643H123.937V40.8148L128.758 38.3551V14.4889H138.475V44.3505Z" fill="white"/>
<path d="M0 85.2805H5.09015L8.67639 92.8132L12.2626 85.2805H17.3528V99.6925H13.111V91.8139L10.2189 98.309H7.09536L4.20323 91.8139V99.6925H0V85.2805Z" fill="white"/>
<path d="M34.0501 99.6542L33.3175 97.6173H27.8803L27.1476 99.6542H22.2502L28.343 85.2422H33.2403L39.1017 99.6542H34.0501ZM29.1528 94.2353H32.1606L30.6567 90.0078L29.1528 94.2353Z" fill="white"/>
<path d="M41.4924 85.2805H54.4877V89.0468H50.3616V99.6925H45.58V89.0468H41.4924V85.2805Z" fill="white"/>
<path d="M58.8452 85.2805H71.8405V89.0468H67.7144V99.6925H62.9328V89.0468H58.8452V85.2805Z" fill="white"/>
<path d="M77.1235 85.2805H89.3476V88.8931H81.9052V90.661H88.6535V94.2736H81.9052V96.0799H89.5404V99.6925H77.1235V85.2805Z" fill="white"/>
<path d="M95.4788 85.2805H100.26V95.6956H106.276V99.6541H95.4788V85.2805Z" fill="white"/>
<path d="M111.636 85.2805H116.418V99.6925H111.636V85.2805Z" fill="white"/>
<path d="M140.211 92.0831H144.298V98.1169C143.488 98.6549 142.486 99.1161 141.29 99.462C140.095 99.8079 138.977 100 137.974 100C136.47 100 135.12 99.6926 133.925 99.0392C132.73 98.3859 131.804 97.502 131.149 96.349C130.493 95.196 130.146 93.9278 130.146 92.4674C130.146 91.0454 130.493 89.7387 131.187 88.6242C131.881 87.4712 132.845 86.5873 134.079 85.9339C135.313 85.2806 136.701 84.9731 138.283 84.9731C139.401 84.9731 140.558 85.1653 141.676 85.5881C142.794 86.0108 143.758 86.5489 144.53 87.2406L141.83 90.5073C141.329 90.0462 140.789 89.6618 140.133 89.3544C139.478 89.0854 138.861 88.9316 138.283 88.9316C137.666 88.9316 137.126 89.0854 136.624 89.3928C136.123 89.7003 135.737 90.123 135.468 90.6611C135.198 91.1991 135.043 91.814 135.043 92.4674C135.043 93.1592 135.198 93.7741 135.468 94.3121C135.737 94.8502 136.123 95.2729 136.624 95.5804C137.126 95.8878 137.666 96.0415 138.283 96.0415C138.822 96.0415 139.439 95.8878 140.172 95.5419V92.0831H140.211Z" fill="white"/>
<path d="M158.489 99.6542L156.753 95.9263H154.941V99.6542H150.159V85.2422H157.139C159.106 85.2422 160.61 85.7034 161.689 86.5873C162.769 87.4712 163.309 88.7395 163.309 90.3921C163.309 91.4297 163.116 92.3521 162.731 93.1208C162.345 93.8894 161.767 94.5043 161.034 94.9655L163.887 99.6542H158.489ZM154.98 92.3137H157.178C157.718 92.3137 158.103 92.16 158.373 91.8525C158.643 91.545 158.797 91.1223 158.797 90.5842C158.797 90.0462 158.643 89.6234 158.373 89.3544C158.103 89.047 157.679 88.9317 157.178 88.9317H154.98V92.3137Z" fill="white"/>
<path d="M180.584 85.9339C181.78 86.5873 182.744 87.4712 183.438 88.6241C184.132 89.7771 184.441 91.0454 184.441 92.4674C184.441 93.8893 184.094 95.196 183.438 96.349C182.744 97.5019 181.818 98.3859 180.584 99.0392C179.389 99.6926 178.001 100 176.497 100C174.993 100 173.643 99.6926 172.409 99.0392C171.214 98.3859 170.25 97.5019 169.594 96.349C168.9 95.196 168.553 93.8893 168.553 92.4674C168.553 91.0454 168.9 89.7387 169.594 88.5857C170.288 87.4328 171.214 86.5488 172.409 85.9339C173.605 85.2806 174.993 84.9731 176.497 84.9731C178.001 84.9347 179.351 85.2806 180.584 85.9339ZM175.032 89.3928C174.569 89.7002 174.183 90.123 173.913 90.661C173.643 91.1991 173.489 91.814 173.489 92.4674C173.489 93.1207 173.643 93.7356 173.913 94.2737C174.183 94.8117 174.569 95.2345 175.032 95.5419C175.494 95.8494 176.034 96.0031 176.574 96.0031C177.114 96.0031 177.615 95.8494 178.078 95.5419C178.541 95.2345 178.888 94.8117 179.158 94.2737C179.428 93.7356 179.543 93.1207 179.543 92.4289C179.543 91.7756 179.428 91.1607 179.158 90.6226C178.888 90.0846 178.541 89.6618 178.078 89.3544C177.615 89.0469 177.114 88.8932 176.574 88.8932C175.996 88.9316 175.494 89.0853 175.032 89.3928Z" fill="white"/>
<path d="M195.084 95.3881C195.508 95.8109 196.009 96.0415 196.549 96.0415C197.128 96.0415 197.59 95.8109 197.937 95.3881C198.323 94.9654 198.477 94.3889 198.477 93.6971V85.2805H203.259V93.6971C203.259 94.9654 202.989 96.0799 202.411 97.0023C201.871 97.9631 201.061 98.6933 200.058 99.1929C199.056 99.7309 197.86 99.9615 196.472 99.9615C195.122 99.9615 193.927 99.6925 192.886 99.1929C191.845 98.6548 191.035 97.9246 190.457 97.0023C189.878 96.0415 189.608 94.9269 189.608 93.6971V85.2805H194.39V93.6971C194.467 94.3889 194.66 94.9269 195.084 95.3881Z" fill="white"/>
<path d="M220.458 86.6256C221.499 87.5096 222 88.7778 222 90.4304C222 92.1598 221.499 93.505 220.458 94.5042C219.416 95.465 217.99 95.9646 216.1 95.9646H214.095V99.6925H209.313V85.2805H216.1C217.951 85.2805 219.416 85.7033 220.458 86.6256ZM217.026 91.8524C217.296 91.5449 217.45 91.1222 217.45 90.5841C217.45 90.0461 217.296 89.6233 217.026 89.3543C216.756 89.0469 216.331 88.9316 215.83 88.9316H214.095V92.352H215.83C216.37 92.3136 216.756 92.1598 217.026 91.8524Z" fill="white"/>
</svg>
