<svg width="52" height="80" viewBox="0 0 52 80" fill="none" xmlns="http://www.w3.org/2000/svg">
<path d="M31.7988 7.58248C30.1155 7.93097 28.4288 9.52951 28.0524 11.1534L12.8253 77.0266C12.4494 78.6489 13.556 79.9822 15.2746 79.9822H19.5476L36.5115 6.58057C33.7832 7.16175 32.9767 7.33821 31.7988 7.58248Z" fill="#00FF00"/>
<path d="M46.7544 1.09174C44.9202 1.47147 43.0823 3.21332 42.6721 4.98281L26.0799 76.7616C25.6703 78.5293 26.8761 79.9822 28.7489 79.9822H33.4049L51.8896 0C48.9168 0.633291 48.0379 0.825563 46.7544 1.09174Z" fill="#00FF00"/>
<path d="M17.8544 12.1654C16.1722 12.5139 14.4855 14.1124 14.1091 15.7363L0.0736143 77.0113C-0.302855 78.6335 0.802596 79.9669 2.52237 79.9669H6.79416L22.5682 11.1635C19.84 11.7446 19.0334 11.9211 17.8544 12.1654Z" fill="#00FF00"/>
</svg>
